b0014
b0014
b0015
b0026
b0098
b0114
b0118
b0150
b0161
b0169
b0241
b0325
b0345
b0424
b0480
b0565
b0605
b0642
b0683
b0710
b0724
b0726
b0740
b0742
b0811
b0812
b0814
b0854
b0860
b0863
b0897
b0911
b0928
b0929
b0932
b0957
b1002
b1086
b1178
b1197
b1237
b1241
b1243
b1243
b1244
b1245
b1246
b1247
b1276
b1324
b1415
b1440
b1452
b1656
b1676
b1714
b1719
b1732
b1732
b1779
b1779
b2143
b2209
b2268
b2283
b2310
b2416
b2480
b2523
b2564
b2592
b2592
b2697
b2925
b2926
b2937
b3003
b3024
b3035
b3185
b3231
b3295
b3296
b3297
b3305
b3306
b3308
b3310
b3314
b3316
b3317
b3321
b3336
b3339
b3342
b3347
b3386
b3403
b3418
b3500
b3609
b3637
b3686
b3687
b3708
b3751
b3831
b3894
b3908
b3919
b3931
b3980
b3983
b3985
b3986
b3987
b4032
b4033
b4034
b4034
b4035
b4036
b4055
b4142
b4143
b4143
b4226
b4381
b4384
